%YAML 1.1
%TAG !u! tag:unity3d.com,2011:
--- !u!114 &11400000
MonoBehaviour:
  m_ObjectHideFlags: 0
  m_CorrespondingSourceObject: {fileID: 0}
  m_PrefabInstance: {fileID: 0}
  m_PrefabAsset: {fileID: 0}
  m_GameObject: {fileID: 0}
  m_Enabled: 1
  m_EditorHideFlags: 0
  m_Script: {fileID: 11500000, guid: 09b4a8cf0e2609e4684e3e2fc57e021b, type: 3}
  m_Name: Set3
  m_EditorClassIdentifier: 
  dialogueSet:
  - {fileID: 11400000, guid: b6148585acde0f447b12589b021bf673, type: 2}
  - {fileID: 11400000, guid: 22eb524e85f22514dbe9222f26272057, type: 2}
