%YAML 1.1
%TAG !u! tag:unity3d.com,2011:
--- !u!114 &11400000
MonoBehaviour:
  m_ObjectHideFlags: 0
  m_CorrespondingSourceObject: {fileID: 0}
  m_PrefabInstance: {fileID: 0}
  m_PrefabAsset: {fileID: 0}
  m_GameObject: {fileID: 0}
  m_Enabled: 1
  m_EditorHideFlags: 0
  m_Script: {fileID: 11500000, guid: 8a60287fc968f4dc4b59b3d8973c58d1, type: 3}
  m_Name: FreezeScroll
  m_EditorClassIdentifier: 
  nameString: 
  itemType: 9
  prefab: {fileID: 5220275783849236238, guid: 9ccc254a580d3a441b80533e695a8afe, type: 3}
  sprite2D: {fileID: 21300000, guid: 4131df6fc45c66c49a27f31998c40111, type: 3}
  questItem: 0
  isStackable: 1
  maxBatCharge: 0
  curBatCharge: 0
  keyID: 0
