%YAML 1.1
%TAG !u! tag:unity3d.com,2011:
--- !u!114 &11400000
MonoBehaviour:
  m_ObjectHideFlags: 0
  m_CorrespondingSourceObject: {fileID: 0}
  m_PrefabInstance: {fileID: 0}
  m_PrefabAsset: {fileID: 0}
  m_GameObject: {fileID: 0}
  m_Enabled: 1
  m_EditorHideFlags: 0
  m_Script: {fileID: 11500000, guid: 8a60287fc968f4dc4b59b3d8973c58d1, type: 3}
  m_Name: Salt
  m_EditorClassIdentifier: 
  nameString: Salt
  itemType: 0
  prefab: {fileID: 204534674666209747, guid: 616725f38e4ee43b7a05378d41b9e3ae, type: 3}
  sprite2D: {fileID: 21300000, guid: 9765a8d668f635b4ca6c3dd7cd354bfc, type: 3}
  questItem: 1
  isStackable: 1
  maxBatCharge: 0
  curBatCharge: 0
  keyID: 0
