%YAML 1.1
%TAG !u! tag:unity3d.com,2011:
--- !u!114 &11400000
MonoBehaviour:
  m_ObjectHideFlags: 0
  m_CorrespondingSourceObject: {fileID: 0}
  m_PrefabInstance: {fileID: 0}
  m_PrefabAsset: {fileID: 0}
  m_GameObject: {fileID: 0}
  m_Enabled: 1
  m_EditorHideFlags: 0
  m_Script: {fileID: 11500000, guid: 3c724e71d20528b44bbae816af1e474f, type: 3}
  m_Name: Mangkukulam
  m_EditorClassIdentifier: 
  aswangID: 2
  aswangImage: {fileID: 21300000, guid: a9ac009fe6c6ebb49ac2b66b177c66b0, type: 3}
  aswangName: Mangkukulam
  aswangDescription: Blah Blah Blah Blah Blah  Blah Blah Blah
  weakness1: Blah
  weakness2: Blah
  weakness3: Blah
  strengths1: Blah
  strengths2: Blah
  strengths3: Blah
  observations:
  - obsTitle: 123123
    obsContent: 43242423
  - obsTitle: 65766
    obsContent: 89098089-
  - obsTitle: 343
    obsContent: 657575
  - obsTitle: NewTitle
    obsContent: NewContent
  - obsTitle: NewTitle
    obsContent: NewContent
  - obsTitle: NewTitle
    obsContent: NewContent
  - obsTitle: NewTitle
    obsContent: NewContent
  - obsTitle: NewTitle
    obsContent: NewContent
  - obsTitle: NewTitle
    obsContent: NewContent
  - obsTitle: NewTitle
    obsContent: NewContent
  - obsTitle: NewTitle
    obsContent: NewContent
  - obsTitle: NewTitle
    obsContent: NewContent
  - obsTitle: NewTitle
    obsContent: NewContent
