%YAML 1.1
%TAG !u! tag:unity3d.com,2011:
--- !u!114 &11400000
MonoBehaviour:
  m_ObjectHideFlags: 0
  m_CorrespondingSourceObject: {fileID: 0}
  m_PrefabInstance: {fileID: 0}
  m_PrefabAsset: {fileID: 0}
  m_GameObject: {fileID: 0}
  m_Enabled: 1
  m_EditorHideFlags: 0
  m_Script: {fileID: 11500000, guid: 338cd735c4b90574abf7ebc36f105066, type: 3}
  m_Name: 3P
  m_EditorClassIdentifier: 
  charPortrait: {fileID: 21300000, guid: 72cac205876be604ea5dc355d3a262f2, type: 3}
  sourceName: Pedro
  dialogue: The settlement is just nearby right?
