%YAML 1.1
%TAG !u! tag:unity3d.com,2011:
--- !u!21 &2100000
Material:
  serializedVersion: 6
  m_ObjectHideFlags: 0
  m_CorrespondingSourceObject: {fileID: 0}
  m_PrefabInstance: {fileID: 0}
  m_PrefabAsset: {fileID: 0}
  m_Name: Material_PingShader
  m_Shader: {fileID: -6465566751694194690, guid: c248c977ef7a949a3a0c941c16a127cd,
    type: 3}
  m_ShaderKeywords: 
  m_LightmapFlags: 4
  m_EnableInstancingVariants: 0
  m_DoubleSidedGI: 0
  m_CustomRenderQueue: -1
  stringTagMap: {}
  disabledShaderPasses: []
  m_SavedProperties:
    serializedVersion: 3
    m_TexEnvs: []
    m_Floats:
    - Vector1_2632F580: 5
    - Vector1_271C6322: 0.6
    - Vector1_8443D08B: 0.01
    m_Colors:
    - Color_CA25792D: {r: 4.7551894, g: 4.153303, b: 0.124481365, a: 0}
