%YAML 1.1
%TAG !u! tag:unity3d.com,2011:
--- !u!114 &11400000
MonoBehaviour:
  m_ObjectHideFlags: 0
  m_CorrespondingSourceObject: {fileID: 0}
  m_PrefabInstance: {fileID: 0}
  m_PrefabAsset: {fileID: 0}
  m_GameObject: {fileID: 0}
  m_Enabled: 1
  m_EditorHideFlags: 0
  m_Script: {fileID: 11500000, guid: 46044134fa40a428ea6edbb2e68cc488, type: 3}
  m_Name: LesserFlameWisp
  m_EditorClassIdentifier: 
  nameString: Lesser Flame Wisps
  enemyTypes: 3
  weakness: []
  prefab: {fileID: 824997746888464939, guid: cc4d4a069345544df9bc6aea077cd7c9, type: 3}
  animator: {fileID: 0}
  health: 10
  maxStunThreshold: 10
